history_fsm/history_fsm.vcd
$date
	Tue Sep 14 18:27:43 2021
$end
$version
	Icarus Verilog
$end
$timescale
	1ps
$end
$scope module history_fsm $end
$var wire 1 ! a $end
$var wire 1 " clk $end
$var wire 1 # reset $end
$var wire 1 $ x $end
$var wire 1 % y $end
$var reg 3 & nextstate [2:0] $end
$var reg 3 ' state [2:0] $end
$upscope $end
$enddefinitions $end
#0
$dumpvars
b0 '
b11 &
0%
0$
0#
1"
1!
$end
#5000
1#
0"
#10000
1"
#15000
b1 &
0!
0#
0"
#20000
1$
b10 &
b1 '
1"
#25000
0"
#30000
1%
b10 '
1"
#35000
0$
0%
b11 &
1!
1#
0"
#40000
b0 '
1"
#45000
b1 &
0!
0"
#50000
1"
#55000
b11 &
1!
0#
0"
#60000
1$
b100 &
b11 '
1"
#65000
0$
b1 &
0!
1#
0"
#70000
b0 '
1"
#75000
b11 &
1!
0"
#80000
1"
#85000
0#
0"
#90000
1$
b100 &
b11 '
1"
#95000
1#
0"
#100000
0$
b11 &
b0 '
1"
#105000
b1 &
0!
0#
0"
#110000
1$
b10 &
b1 '
1"
#115000
0$
b11 &
1!
1#
0"
#120000
b0 '
1"
#125000
b1 &
0!
0"
#130000
1"
#135000
0#
0"
#140000
1$
b10 &
b1 '
1"
#145000
1#
0"
#150000
0$
b1 &
b0 '
1"
#155000
0"
#160000
1"
#165000
b11 &
1!
0#
0"
#170000
1$
b100 &
b11 '
1"
#175000
1#
0"
#180000
0$
b11 &
b0 '
1"
#185000
b1 &
0!
0"
